[
    {
        "status":1,
        "errCode":0,
        "errMsg":"sin errores",
        "oData":[
            {
                "userID":1,
                "username":"admin",
                "email":"admin",
                "password":"admin2032",
                "create_time":"2018-01-17T15:44:38.000Z",
                "UserTypeID":1,
                "active":1
            },
            {
                "userID":2,
                "username":"Aurora GarcÃ­a R",
                "email":"aura84_g@hotmail.com",
                "password":"aura84",
                "create_time":"2018-01-17T14:15:47.000Z",
                "UserTypeID":1,
                "active":1
            },
            {
                "userID":6,
                "username":"Karina Guadalupe",
                "email":"comunicologa.karina@gmail.com",
                "password":"comunicologa.karina",
                "create_time":"2019-01-21T11:14:50.000Z",
                "UserTypeID":2,
                "active":1
            },
            {
                "userID":5,
                "username":"Mauro Alejandro ",
                "email":"ingemauro.21@outlook.es",
                "password":"ingemauro.21",
                "create_time":"2019-01-21T11:13:09.000Z",
                "UserTypeID":2,
                "active":1
            },
            {
                "userID":8,
                "username":"Test Dev",
                "email":"testdev@mail.com",
                "password":"admin",
                "create_time":"2019-03-22T16:07:12.000Z",
                "UserTypeID":1,
                "active":1
            },
            {
                "userID":3,
                "username":"test usuario",
                "email":"test@test.com",
                "password":"123",
                "create_time":"2018-11-22T10:35:03.000Z",
                "UserTypeID":1,
                "active":0
            },
            {
                "userID":7,
                "username":"test2",
                "email":"tes2t@test.com",
                "password":"123",
                "create_time":"2019-02-06T21:21:28.000Z",
                "UserTypeID":3,
                "active":1
            }
        ]
    }
]